{
    "model_name": "quantities-BidLSTM_CRF_FEATURES",
    "architecture": "BidLSTM_CRF_FEATURES",
    "embeddings_name": "glove-840B",
    "char_vocab_size": 223,
    "case_vocab_size": 8,
    "char_embedding_size": 25,
    "num_char_lstm_units": 25,
    "max_char_length": 30,
    "features_vocabulary_size": 12,
    "features_indices": [
        9,
        10,
        11,
        12,
        15,
        16
    ],
    "features_embedding_size": 4,
    "features_lstm_units": 4,
    "max_sequence_length": 3000,
    "word_embedding_size": 300,
    "num_word_lstm_units": 100,
    "case_embedding_size": 5,
    "dropout": 0.5,
    "recurrent_dropout": 0.5,
    "use_crf": true,
    "use_chain_crf": false,
    "fold_number": 1,
    "batch_size": 20,
    "transformer_name": null,
    "use_ELMo": false,
    "features_map_to_index": {
        "9": {
            "ALLCAPS": 1,
            "INITCAP": 2,
            "NOCAPS": 3
        },
        "10": {
            "ALLDIGIT": 13,
            "CONTAINDIGIT": 14,
            "NODIGIT": 15
        },
        "11": {
            "0": 25,
            "1": 26
        },
        "12": {
            "COMMA": 37,
            "DOT": 38,
            "ENDBRACKET": 39,
            "HYPHEN": 40,
            "NOPUNCT": 41,
            "OPENBRACKET": 42,
            "PUNCT": 43,
            "QUOTE": 44
        },
        "15": {
            "0": 49,
            "1": 50
        },
        "16": {
            "0": 61,
            "1": 62
        }
    }
}