{
    "padding": true,
    "return_lengths": false,
    "return_word_embeddings": false,
    "return_casing": false,
    "return_features": false,
    "return_chars": false,
    "return_bert_embeddings": true,
    "vocab_char": {
        "<PAD>": 0,
        "<UNK>": 1,
        "$": 2,
        "%": 3,
        "+": 4,
        ",": 5,
        "-": 6,
        ".": 7,
        "/": 8,
        "0": 9,
        "1": 10,
        "2": 11,
        "3": 12,
        "4": 13,
        "5": 14,
        "6": 15,
        "7": 16,
        "8": 17,
        "9": 18,
        ":": 19,
        "A": 20,
        "E": 21,
        "F": 22,
        "H": 23,
        "J": 24,
        "M": 25,
        "N": 26,
        "O": 27,
        "P": 28,
        "S": 29,
        "T": 30,
        "a": 31,
        "b": 32,
        "c": 33,
        "d": 34,
        "e": 35,
        "f": 36,
        "g": 37,
        "h": 38,
        "i": 39,
        "l": 40,
        "m": 41,
        "n": 42,
        "o": 43,
        "p": 44,
        "r": 45,
        "s": 46,
        "t": 47,
        "u": 48,
        "v": 49,
        "w": 50,
        "x": 51,
        "y": 52,
        "z": 53,
        "{": 54,
        "~": 55,
        "\u00d7": 56,
        "\u2022": 57,
        "\u20ac": 58,
        "\u2212": 59,
        "\u223c": 60,
        "\uf03c": 61
    },
    "vocab_tag": {
        "<PAD>": 0,
        "B-<alpha>": 1,
        "B-<base>": 2,
        "B-<number>": 3,
        "B-<pow>": 4,
        "I-<alpha>": 5,
        "I-<base>": 6,
        "I-<number>": 7,
        "I-<pow>": 8,
        "O": 9
    },
    "vocab_case": [
        "<PAD>",
        "numeric",
        "allLower",
        "allUpper",
        "initialUpper",
        "other",
        "mainly_numeric",
        "contains_digit"
    ],
    "max_char_length": 30,
    "feature_preprocessor": null,
    "indice_tag": {
        "0": "<PAD>",
        "1": "B-<alpha>",
        "2": "B-<base>",
        "3": "B-<number>",
        "4": "B-<pow>",
        "5": "I-<alpha>",
        "6": "I-<base>",
        "7": "I-<number>",
        "8": "I-<pow>",
        "9": "O"
    }
}